{
	"$schema": "https://json.schemastore.org/block.json",
	"apiVersion": 2,
	"name": "noon/columnheader",
	"title": "Noon Column Header",
	"category": "layout",
	"textdomain": "gutenberg-examples",
	"example": {},
	"editorScript": "file:./build/index.js",
	"editorStyle": "file:./build/index.css",
    "attributes": {

        "groupTitle": {
            "type": "string",
            "default": ""
        },
        "groupIntro": {
            "type": "string",
            "default": ""
        },
		"removeWrapperPadding": {
			"type": "boolean",
			"default": false
		},
		"addIntro": {
			"type": "boolean",
			"default": false
		},
		"addTitle": {
			"type": "boolean",
			"default": false
		},
		"titleSize": {
			"type": "string",
			"default": "standard"
		}
    }

}
