{
	"$schema": "https://json.schemastore.org/block.json",
	"apiVersion": 2,
	"name": "noon/carousel",
	"title": "Noon Carousel",
	"category": "layout",
	"textdomain": "studio-noon",
	"example": {},
	"editorScript": "file:./build/index.js",
	"editorStyle": "file:./build/index.css",
	"supports": {
		"color": true
	},
    "attributes": {

        "uniqueID": {
            "type": "string"
        },

        "groupIntro": {
            "type": "string",
            "default": ""
        },
        "groupIntro2": {
            "type": "string",
            "default": ""
        },
        "groupIntro3": {
            "type": "string",
            "default": ""
        },
        "groupTitle": {
            "type": "string",
            "default": ""
        },
        "groupCTA": {
            "type": "string",
            "default": ""
        },
        

        "breakpoints":{
            "type" : "object"
        },

        "slide_in_view_xs":{
            "type" : "integer"
        },
        "slide_in_view_sm":{
            "type" : "integer"
        },
        "slide_in_view_md":{
            "type" : "integer"
        },
        "slide_in_view_lg":{
            "type" : "integer"
        },
        "slide_in_view_xl":{
            "type" : "integer"
        },
        "slide_in_view_xxl":{
            "type" : "integer"
        },
        

        "imageBreakpoints":{
            "type" : "object"
        },

        "image_height_xs":{
            "type" : "string"
        },
        "image_height_sm":{
            "type" : "string"
        },
        "image_height_md":{
            "type" : "string"
        },
        "image_height_lg":{
            "type" : "string"
        },
        "image_height_xl":{
            "type" : "string"
        },
        "image_height_xxl":{
            "type" : "string"
        },

        "imageBreakpointUnits":{
            "type" : "object"
        },

        "image_unit_xs":{
            "type" : "string"
        },
        "image_unit_sm":{
            "type" : "string"
        },
        "image_unit_md":{
            "type" : "string"
        },
        "image_unit_lg":{
            "type" : "string"
        },
        "image_unit_xl":{
            "type" : "string"
        },
        "image_unit_xxl":{
            "type" : "string"
        }

    }

}
