{
	"$schema": "https://json.schemastore.org/block.json",
	"apiVersion": 2,
	"name": "noon/cover-image",
	"title": "Cover Image",
	"category": "layout",
	"icon": "universal-access-alt",
	"textdomain": "gutenberg-examples",
	"example": {},
	"editorScript": "file:./build/index.js",
	"editorStyle": "file:./build/index.css",
	"supports": {
		"align": true
	},
    "attributes": {

        "mediaURL": {
            "type": "string",
            "default": "null"
        },
        "mediaID": {
            "type": "number",
            "default": "null"
        },
		"focalPoint": {
			"type": "object"
		}
		
    }

}
